<?xml version="1.0" encoding="UTF-8"?>
<svg width="167px" height="77px" viewBox="0 0 167 77" version="1.1" xmlns="http://www.w3.org/2000/svg" xmlns:xlink="http://www.w3.org/1999/xlink">
    <title>Logo</title>
    <defs>
        <linearGradient x1="78.6704633%" y1="78.8928795%" x2="11.7318093%" y2="26.6594231%" id="linearGradient-1">
            <stop stop-color="#737174" offset="0%"></stop>
            <stop stop-color="#A8AAAD" offset="100%"></stop>
        </linearGradient>
        <linearGradient x1="11.7320205%" y1="26.7265106%" x2="78.670252%" y2="78.9596815%" id="linearGradient-2">
            <stop stop-color="#92D8F6" offset="0%"></stop>
            <stop stop-color="#10A6E0" offset="100%"></stop>
        </linearGradient>
        <linearGradient x1="13.6615418%" y1="36.9246642%" x2="79.899147%" y2="67.7497916%" id="linearGradient-3">
            <stop stop-color="#CFE28B" offset="0%"></stop>
            <stop stop-color="#94C946" offset="100%"></stop>
        </linearGradient>
        <linearGradient x1="21.1341614%" y1="79.2243879%" x2="88.2348326%" y2="26.9277572%" id="linearGradient-4">
            <stop stop-color="#983E97" offset="0%"></stop>
            <stop stop-color="#C8A2CC" offset="100%"></stop>
        </linearGradient>
        <linearGradient x1="21.1341614%" y1="79.1332101%" x2="88.2348326%" y2="26.8365794%" id="linearGradient-5">
            <stop stop-color="#EF5B9D" offset="0%"></stop>
            <stop stop-color="#F391BB" offset="100%"></stop>
        </linearGradient>
        <linearGradient x1="23.4022576%" y1="86.7741409%" x2="86.4016383%" y2="15.4133406%" id="linearGradient-6">
            <stop stop-color="#F89524" offset="0%"></stop>
            <stop stop-color="#FFD42A" offset="100%"></stop>
        </linearGradient>
        <linearGradient x1="21.2652248%" y1="79.0746162%" x2="88.3658961%" y2="26.7779855%" id="linearGradient-7">
            <stop stop-color="#EB292B" offset="0%"></stop>
            <stop stop-color="#F8A285" offset="100%"></stop>
        </linearGradient>
    </defs>
    <g id="UI---Desktop-&amp;-Mobile" stroke="none" stroke-width="1" fill="none" fill-rule="evenodd">
        <g id="Logo">
            <path d="M23.4934626,66.164768 C24.2347353,66.164768 24.782541,66.6563218 24.7962312,66.9293851 C24.8100216,67.2024484 24.4268986,67.2980754 24.2209449,67.2024484 C24.0150414,67.1069211 23.8228781,66.7381809 23.465982,66.6972763 C23.1091361,66.6563717 22.2855219,67.1217864 21.5579894,68.4450509 C20.8304569,69.7683153 20.0480636,71.5843806 21.4893884,71.7482485 C22.9306629,71.9120665 24.1249134,70.3281599 24.2895962,70.0414285 C24.454329,69.7546472 24.8225082,69.9595195 24.6178082,70.3554961 C24.4131082,70.7514229 22.7933605,72.55387 21.58547,72.3900021 C20.3775293,72.2261342 20.130405,71.6105197 20.130405,70.5329823 C20.130405,69.4554947 20.9952399,67.8169156 22.2992622,66.6153673 C22.7144793,66.2328093 23.4934626,66.164768 23.4934626,66.164768 Z M33.6383988,66.757037 C33.8103528,66.7814301 34.0804946,66.8914236 33.9945427,67.160147 C33.9085907,67.4288704 33.162905,68.9401464 32.9295711,70.2838133 C32.6962372,71.6274801 32.8804271,71.9206964 33.0646169,71.9085248 C33.2488068,71.8962035 34.2033046,71.1111341 34.9523502,69.6119798 C35.7013957,68.1129253 35.8119197,67.6609293 35.8364917,67.3189268 C35.8610136,66.9769242 35.9593017,66.5738142 36.3645395,66.5493712 C36.7697773,66.5249781 36.6715393,67.086818 36.5978233,67.514371 C36.5241072,67.9418742 36.2908234,69.4410285 36.4995853,70.3815853 C36.7082971,71.3221421 37.0399191,71.3831997 37.187251,71.3343636 C37.3345828,71.2854776 37.7241748,71.0534187 37.8346987,70.9800897 C37.9452227,70.9068106 38.0523868,71.2854776 37.8469346,71.5175864 C37.6415827,71.7496952 37.1503929,71.8718104 36.8188712,71.7863098 C36.4872993,71.7008091 35.7996337,71.0534187 35.7382537,69.212212 C35.7292273,68.9425907 35.6523018,69.166768 35.5172058,69.5054283 C35.38216,69.8441385 34.4153762,72.4214787 33.0523309,72.4337923 C31.6893358,72.4459716 32.4138595,69.7985947 32.5979992,68.9679815 C32.7821891,68.1373683 33.273429,67.0379819 33.298001,66.9035952 C33.3225229,66.7692086 33.4664949,66.732594 33.6383988,66.757037 Z M60.6735927,62.8689531 C61.793425,62.7721289 61.9719483,64.3057528 61.9069077,64.677087 C61.8420175,65.0484211 61.5499113,65.2421194 61.4687734,64.8385106 C61.3876858,64.4349017 61.338993,63.3532738 60.5924047,63.3532738 C59.8458163,63.3532738 59.2710316,64.8776194 59.1898436,66.3144689 C59.1087058,67.7513684 59.0438156,68.2517516 59.0438156,68.2517516 C59.0438156,68.2517516 59.521265,68.0580533 60.0730323,68.090328 C60.6248498,68.1226526 60.8033229,68.6554104 60.8033229,68.7522346 C60.8033229,68.8491087 60.6572949,69.0266946 60.4950694,68.9298704 C60.3327436,68.8329963 60.0662123,68.1158685 58.9301825,68.865271 C58.9301825,68.865271 59.1087058,71.9395026 59.092408,72.3592738 C59.0762607,72.7789951 58.3945625,72.9081439 58.3945625,72.5206973 C58.3945625,72.1332009 58.3296723,69.2688799 58.3133745,69.139731 C58.2972272,69.0105323 57.8751902,69.3105328 57.6642719,69.4626281 C57.4533035,69.6147235 57.0800094,69.8016376 57.0151192,69.5271776 C56.9501287,69.2527176 56.9176836,69.1881681 57.5019461,68.8975458 C58.0862588,68.6069733 58.3945625,68.4616621 58.3945625,68.4616621 C58.3945625,68.4616621 58.4757003,65.9363506 58.9301825,64.5318257 C59.3846145,63.1272508 60.0195756,62.9255212 60.6735927,62.8689531 Z M129.733517,65.6512155 C130.66264,65.6512155 130.576688,67.0205725 130.559438,67.2430537 C130.542287,67.4655848 130.284231,67.4826949 130.094926,67.4826949 C129.905571,67.4826949 129.819619,67.3286042 129.836769,66.8836417 C129.85402,66.4386294 129.905571,66.2331585 129.647465,66.2331585 C129.389408,66.2331585 128.959197,66.1989383 127.548161,68.0475777 C126.137326,69.8961672 125.775917,71.042993 126.051223,71.4024548 C126.326581,71.7618668 127.840769,70.2898492 128.184928,69.7763466 C128.529086,69.262844 129.716266,67.7222862 130.026024,67.7222862 C130.335782,67.7222862 130.989649,68.6466807 130.920847,71.4024548 C130.852045,74.158229 129.767918,76.9653833 127.720316,76.9996035 C125.672664,77.0338237 125.173651,74.8428825 125.190801,74.34649 C125.208052,73.8501474 125.345655,73.8843676 125.500559,73.8672575 C125.655413,73.8501474 125.689814,74.1924991 125.689814,74.4663605 C125.689814,74.740172 126.350952,76.4069854 127.599462,76.4069854 C128.847871,76.4069854 130.103501,74.7230619 130.284231,71.9416476 C130.329413,71.2455707 130.275556,69.297114 130.017449,68.7237011 C129.842637,68.3351072 129.681865,68.5525003 129.630314,68.698011 C129.578663,68.8434718 127.660089,71.9244876 126.29218,71.9758678 C124.92417,72.0271981 125.560786,69.9817177 125.948021,69.262844 C126.335156,68.5439203 128.262304,65.6512155 129.733517,65.6512155 Z M119.903353,67.1707722 C120.405776,67.0893621 120.136938,68.0891308 120.043514,68.7168172 C119.94999,69.3445534 119.833198,69.634627 119.833198,69.750856 C119.833198,69.867085 119.903353,69.796749 119.996727,69.634627 C120.090301,69.4724053 121.585534,66.8917728 122.333426,66.8917728 C123.081218,66.8917728 123.116371,67.6827783 123.244898,69.1353413 C123.373475,70.5878044 123.490267,71.6688836 123.887682,71.7038022 C124.284946,71.738621 124.308315,71.3433926 124.565418,71.4828673 C124.822522,71.622392 124.401889,72.180341 123.934319,72.180341 C123.466898,72.180341 122.824265,71.7380723 122.660585,69.971741 C122.497006,68.2053598 122.473637,67.519509 122.274905,67.4962632 C122.076323,67.4730174 121.574351,68.0775079 121.282245,68.5657195 C120.990038,69.0539311 119.78641,71.1574262 119.552675,71.9130143 C119.408102,72.3803247 119.283988,72.37803 119.120408,72.3547343 C118.956729,72.3314885 118.863305,72.3314885 118.956729,71.5759004 C119.050253,70.8203123 119.354093,68.3913262 119.435883,68.0077206 C119.517673,67.6241151 119.40078,67.2521325 119.903353,67.1707722 Z M29.9239613,66.0626561 C30.356128,66.0626561 30.6761661,66.4469101 30.5768249,66.9957803 C30.4775338,67.5446504 30.3102435,67.6215212 30.0343348,67.6215212 C29.758426,67.6215212 29.8135877,67.4458308 29.9129289,67.1055244 C30.0122701,66.7652179 30.0233024,66.5676286 29.8798319,66.5456798 C29.7363112,66.523731 28.4782737,67.3233664 27.3195273,69.037669 C26.1607307,70.7519218 25.8203831,71.3886371 25.7745488,71.8058143 C25.7286141,72.2229915 26.1496984,72.2009928 26.4808189,72.0582756 C26.8118893,71.9156083 29.3611616,69.2791559 29.6150057,68.488749 C29.7658979,68.0187948 29.7346062,67.7422896 30.1005789,67.7422896 C30.4665015,67.7422896 30.4112897,68.1264937 30.356128,68.4119281 C30.3009162,68.6973127 29.9460761,70.3347944 30.0343348,70.87274 C30.1225935,71.4105859 30.323031,71.3996614 30.488516,71.3996614 C30.6540512,71.3996614 30.8417013,71.1032026 30.9078452,70.949511 C30.9740893,70.7958194 31.4597128,70.8068437 31.3272244,71.223971 C31.1948364,71.6411483 30.8655211,71.8826352 30.422322,71.8826352 C29.9791229,71.8826352 29.3170323,71.3666882 29.3832263,69.939566 C29.3887926,69.8188974 29.3059999,69.8517208 29.1956264,69.9944879 C29.0852529,70.1371553 27.1447149,72.6950408 25.8959045,72.6950408 C24.6471442,72.6950408 25.4103813,70.762946 26.2049102,69.4548463 C26.9994892,68.1466467 28.6862333,66.0626561 29.9239613,66.0626561 Z M85.9502821,66.0626561 C86.3824489,66.0626561 86.7024869,66.4469101 86.6031959,66.9957803 C86.5039049,67.5446504 86.3365644,67.6215212 86.0607058,67.6215212 C85.7847971,67.6215212 85.8400089,67.4458308 85.9392999,67.1055244 C86.038591,66.7652179 86.0497236,66.5676286 85.9062029,66.5456798 C85.7627324,66.523731 84.5046448,67.3233664 83.3458482,69.037669 C82.1870516,70.7519218 81.846704,71.3886371 81.8009198,71.8058143 C81.7550353,72.2229915 82.1761697,72.2009928 82.5072401,72.0582756 C82.8382603,71.9156083 85.3874825,69.2791559 85.6414268,68.488749 C85.7922188,68.0187948 85.7610274,67.7422896 86.12695,67.7422896 C86.4929227,67.7422896 86.4377108,68.1264937 86.3824489,68.4119281 C86.327237,68.6973127 85.9724471,70.3347944 86.0607058,70.87274 C86.1490146,71.4105859 86.349402,71.3996614 86.5149372,71.3996614 C86.6804724,71.3996614 86.8680221,71.1032026 86.9342663,70.949511 C87.0005105,70.7958194 87.4860336,70.8068437 87.3536957,71.223971 C87.2212575,71.6411483 86.8918921,71.8826352 86.448693,71.8826352 C86.0054939,71.8826352 85.3434033,71.3666882 85.4096474,69.939566 C85.4151636,69.8188974 85.3322706,69.8517208 85.2219473,69.9944879 C85.111674,70.1371553 83.1710358,72.6950408 81.9222755,72.6950408 C80.673465,72.6950408 81.4367022,70.762946 82.2312812,69.4548463 C83.0258101,68.1466467 84.7126545,66.0626561 85.9502821,66.0626561 Z M53.4715324,62.998102 C53.7601283,63.0440449 53.8062636,63.4230112 53.6678077,63.9282331 C53.5293519,64.4335049 53.0905658,67.7771583 53.1945205,69.6604668 C53.298425,71.5437254 53.5363223,72.3502947 54.0670279,72.336028 C54.4941799,72.3245547 54.5634831,72.0604705 54.7365905,72.2327189 C55.0136526,72.5082763 54.4663985,72.7724104 54.0670279,72.7724104 C53.6678077,72.7724104 52.3749682,72.1455721 52.5480756,68.8728034 C52.721183,65.6001346 53.0097288,63.5837364 53.1252173,63.3196522 C53.2406557,63.0555181 53.3457136,62.9780487 53.4715324,62.998102 Z M99.0360383,62.998102 C99.324584,63.0440449 99.3707193,63.4230112 99.2322634,63.9282331 C99.0936572,64.4335049 98.6550215,67.7771583 98.7589762,69.6604668 C98.8628807,71.5437254 99.100778,72.3502947 99.6315337,72.336028 C100.058686,72.3245547 100.127939,72.0604705 100.301096,72.2327189 C100.578158,72.5082763 100.030854,72.7724104 99.6315337,72.7724104 C99.2322634,72.7724104 97.9394239,72.1455721 98.1125313,68.8728034 C98.2856387,65.6001346 98.5742347,63.5837364 98.689673,63.3196522 C98.8051114,63.0555181 98.9101693,62.9780487 99.0360383,62.998102 Z M42.5813618,66.9337748 C42.4286643,67.1331599 42.2186487,66.9717363 41.9705715,66.848374 C41.7223941,66.7249119 41.5983806,66.6014996 41.0829698,66.8672799 C40.5675591,67.1331599 39.248242,68.1013523 39.2930233,68.8135416 C39.3120791,69.117433 39.3928158,69.1743503 40.2568985,69.2028339 C41.1211317,69.2313175 42.476354,69.2554612 42.514566,70.290348 C42.5527279,71.325185 41.1827122,72.4834342 39.8847076,72.4834342 C39.4647767,72.4834342 38.7012888,72.1701148 38.7776125,71.5815373 C38.8539362,70.9928599 39.2739173,70.8314862 39.369347,70.9359427 C39.4647767,71.0402993 39.2643893,71.325185 39.2643893,71.5435259 C39.2643893,71.7618668 39.4457208,71.8568453 39.8751796,71.8568453 C40.3046384,71.8568453 42.0373172,71.2777456 42.0373172,70.4802053 C42.0373172,69.6827149 41.0777546,69.815605 40.3333225,69.7586878 C39.5888403,69.7017705 38.5008513,69.6585712 38.4913234,69.0888996 C38.4817453,68.5192778 39.1446383,67.7597489 39.9229196,67.0192256 C40.7012008,66.2787023 41.3310971,66.0223501 41.7415001,66.0223501 C42.1518529,66.0223501 42.5717838,66.4685596 42.6291018,66.6109775 C42.6863195,66.7533456 42.5813618,66.9337748 42.5813618,66.9337748 Z M77.0643863,66.9337748 C76.9117389,67.1331599 76.7017735,66.9717363 76.453596,66.848374 C76.2054186,66.7249119 76.0814051,66.6014996 75.5659943,66.8672799 C75.0506839,67.1331599 73.7312665,68.1013523 73.7760478,68.8135416 C73.7951538,69.117433 73.8758403,69.1743503 74.7399732,69.2028339 C75.6041562,69.2313175 76.9594788,69.2554612 76.9976407,70.290348 C77.0358527,71.325185 75.6658871,72.4834342 74.3677822,72.4834342 C73.9478513,72.4834342 73.1843634,72.1701148 73.260637,71.5815373 C73.3370109,70.9928599 73.7569418,70.8314862 73.8524718,70.9359427 C73.9478513,71.0402993 73.7474138,71.325185 73.7474138,71.5435259 C73.7474138,71.7618668 73.9287453,71.8568453 74.3582041,71.8568453 C74.7877131,71.8568453 76.520442,71.2777456 76.520442,70.4802053 C76.520442,69.6827149 75.5608292,69.815605 74.816347,69.7586878 C74.0719651,69.7017705 72.9839259,69.6585712 72.974398,69.0888996 C72.9648701,68.5192778 73.6276628,67.7597489 74.4059441,67.0192256 C75.1842253,66.2787023 75.8141216,66.0223501 76.2245246,66.0223501 C76.6349275,66.0223501 77.0548584,66.4685596 77.1121263,66.6109775 C77.1694443,66.7533456 77.0643863,66.9337748 77.0643863,66.9337748 Z M114.920097,66.9337748 C114.767449,67.1331599 114.557333,66.9717363 114.309306,66.848374 C114.061129,66.7249119 113.937015,66.6014996 113.421705,66.8672799 C112.906244,67.1331599 111.586977,68.1013523 111.631758,68.8135416 C111.650864,69.117433 111.73145,69.1743503 112.595683,69.2028339 C113.459866,69.2313175 114.815039,69.2554612 114.853251,70.290348 C114.891463,71.325185 113.521447,72.4834342 112.223493,72.4834342 C111.803562,72.4834342 111.039973,72.1701148 111.116347,71.5815373 C111.192721,70.9928599 111.612652,70.8314862 111.708032,70.9359427 C111.803562,71.0402993 111.603124,71.325185 111.603124,71.5435259 C111.603124,71.7618668 111.784456,71.8568453 112.213914,71.8568453 C112.643423,71.8568453 114.376002,71.2777456 114.376002,70.4802053 C114.376002,69.6827149 113.416439,69.815605 112.672057,69.7586878 C111.927575,69.7017705 110.839536,69.6585712 110.830008,69.0888996 C110.82043,68.5192778 111.483373,67.7597489 112.261654,67.0192256 C113.039936,66.2787023 113.669832,66.0223501 114.080235,66.0223501 C114.490638,66.0223501 114.910569,66.4685596 114.967837,66.6109775 C115.025004,66.7533456 114.920097,66.9337748 114.920097,66.9337748 Z M110.446283,66.9337748 C110.293485,67.1331599 110.08352,66.9717363 109.835393,66.848374 C109.587316,66.7249119 109.463202,66.6014996 108.947741,66.8672799 C108.432481,67.1331599 107.113163,68.1013523 107.157844,68.8135416 C107.17695,69.117433 107.257637,69.1743503 108.12187,69.2028339 C108.985953,69.2313175 110.341225,69.2554612 110.379437,70.290348 C110.417649,71.325185 109.047684,72.4834342 107.749679,72.4834342 C107.329598,72.4834342 106.56616,72.1701148 106.642534,71.5815373 C106.718808,70.9928599 107.138738,70.8314862 107.234218,70.9359427 C107.329598,71.0402993 107.12921,71.325185 107.12921,71.5435259 C107.12921,71.7618668 107.310642,71.8568453 107.740001,71.8568453 C108.16961,71.8568453 109.902239,71.2777456 109.902239,70.4802053 C109.902239,69.6827149 108.942626,69.815605 108.198244,69.7586878 C107.453762,69.7017705 106.365723,69.6585712 106.356195,69.0888996 C106.346617,68.5192778 107.009459,67.7597489 107.787741,67.0192256 C108.566022,66.2787023 109.195918,66.0223501 109.606321,66.0223501 C110.016674,66.0223501 110.436755,66.4685596 110.493923,66.6109775 C110.551191,66.7533456 110.446283,66.9337748 110.446283,66.9337748 Z M116.340009,64.6983873 C116.340009,64.4606417 116.533827,64.2678412 116.772928,64.2678412 C117.012028,64.2678412 117.205846,64.4606417 117.205846,64.6983873 C117.205846,64.9362327 117.012028,65.1290331 116.772928,65.1290331 C116.533827,65.1290331 116.340009,64.9362327 116.340009,64.6983873 Z M116.894985,66.9494383 C117.072656,67.0046097 117.050491,67.3579358 116.87282,67.8326788 C116.6953,68.3074218 116.417787,69.3991262 116.517679,70.5805214 C116.617572,71.7618668 116.917301,72.1593898 117.228011,72.1483157 C117.538873,72.1372914 117.583203,72.0048502 117.638765,71.9385548 C117.694228,71.8723092 118.016071,71.905432 117.871748,72.2145612 C117.727526,72.5237403 117.461095,72.556863 117.094821,72.556863 C116.728497,72.556863 115.875296,72.1137962 115.875296,69.9732375 C115.875296,67.8326788 116.355955,67.2614109 116.439952,67.1150023 C116.573142,66.8831429 116.717465,66.8942171 116.894985,66.9494383 Z M70.844505,64.6983873 C70.844505,64.4606417 71.0383231,64.2678412 71.2772735,64.2678412 C71.5163743,64.2678412 71.7101925,64.4606417 71.7101925,64.6983873 C71.7101925,64.9362327 71.5163743,65.1290331 71.2772735,65.1290331 C71.0383231,65.1290331 70.844505,64.9362327 70.844505,64.6983873 Z M71.3994817,66.9494383 C71.5770021,67.0046097 71.5548371,67.3579358 71.3771663,67.8326788 C71.199646,68.3074218 70.9221325,69.3991262 71.0220253,70.5805214 C71.1219181,71.7618668 71.4216467,72.1593898 71.7323574,72.1483157 C72.0432186,72.1372914 72.0876488,72.0048502 72.1431114,71.9385548 C72.198574,71.8723092 72.5204173,71.905432 72.3761946,72.2145612 C72.2318716,72.5237403 71.9654406,72.556863 71.5992673,72.556863 C71.2329436,72.556863 70.3796424,72.1137962 70.3796424,69.9732375 C70.3796424,67.8326788 70.8603013,67.2614109 70.9443978,67.1150023 C71.0775882,66.8831429 71.2218109,66.8942171 71.3994817,66.9494383 Z M55.7022209,64.6983873 C55.7022209,64.4606417 55.896039,64.2678412 56.1351398,64.2678412 C56.3740902,64.2678412 56.5679083,64.4606417 56.5679083,64.6983873 C56.5679083,64.9362327 56.3740902,65.1290331 56.1351398,65.1290331 C55.896039,65.1290331 55.7022209,64.9362327 55.7022209,64.6983873 Z M56.2571976,66.9494383 C56.4347179,67.0046097 56.412553,67.3579358 56.2348822,67.8326788 C56.0573618,68.3074218 55.7798484,69.3991262 55.8797412,70.5805214 C55.979634,71.7618668 56.2793626,72.1593898 56.5901736,72.1483157 C56.9009345,72.1372914 56.9453647,72.0048502 57.0008273,71.9385548 C57.0562898,71.8723092 57.3781332,71.905432 57.2339105,72.2145612 C57.0895874,72.5237403 56.8233069,72.556863 56.4569832,72.556863 C56.0906594,72.556863 55.2374586,72.1137962 55.2374586,69.9732375 C55.2374586,67.8326788 55.7180172,67.2614109 55.8021137,67.1150023 C55.9353041,66.8831429 56.0795268,66.8942171 56.2571976,66.9494383 Z M104.144261,66.053278 C104.735193,66.1539931 104.752093,67.6165328 103.85727,68.773934 C102.962447,69.9313352 102.069079,69.8487278 101.579493,69.4960502 C101.579493,69.4960502 101.208055,70.0488611 101.140557,71.0565115 C101.073009,72.0641619 101.966377,72.0305902 102.574209,71.8122992 C103.18194,71.5939583 104.346855,70.6366904 104.904038,69.6122293 C105.000521,69.4348429 105.072883,69.2273767 105.292276,69.3280918 C105.51177,69.4289067 105.427322,69.6962334 105.022184,70.3343953 C104.616947,70.9725573 103.38313,72.4672719 101.915779,72.4672719 C100.448378,72.4672719 100.532725,71.0565115 100.532725,70.5191146 C100.532725,69.9816678 101.326201,68.0517679 102.726155,66.6914399 C103.161781,66.268127 103.553429,65.9525129 104.144261,66.053278 Z M103.941617,66.5738641 C104.279307,66.5738641 104.127362,67.4303669 103.688425,68.035007 C103.249539,68.6395972 102.792248,69.2105659 102.185871,69.2441376 C101.579493,69.2777592 101.763734,68.992225 101.89888,68.7571232 C102.033925,68.5220214 103.013146,67.3464127 103.249539,67.0441176 C103.485831,66.7417726 103.603978,66.5738641 103.941617,66.5738641 Z M64.7743124,66.053278 C65.3652947,66.1539931 65.3821942,67.6165328 64.4873714,68.773934 C63.5925485,69.9313352 62.6991799,69.8487278 62.2095447,69.4960502 C62.2095447,69.4960502 61.8382564,70.0488611 61.7706583,71.0565115 C61.7030602,72.0641619 62.5964288,72.0305902 63.2043105,71.8122992 C63.8120419,71.5939583 64.9769564,70.6366904 65.5341396,69.6122293 C65.6306224,69.4348429 65.7029845,69.2273767 65.9224779,69.3280918 C66.1418709,69.4289067 66.0575237,69.6962334 65.6522859,70.3343953 C65.2470481,70.9725573 64.0131815,72.4672719 62.5458806,72.4672719 C61.0784293,72.4672719 61.162927,71.0565115 61.162927,70.5191146 C61.162927,69.9816678 61.9564027,68.0517679 63.3562559,66.6914399 C63.7918326,66.268127 64.1834806,65.9525129 64.7743124,66.053278 Z M64.5718189,66.5738641 C64.9093583,66.5738641 64.7575633,67.4303669 64.3185265,68.035007 C63.87964,68.6395972 63.4223496,69.2105659 62.8159723,69.2441376 C62.2095447,69.2777592 62.3939352,68.992225 62.5289811,68.7571232 C62.6640269,68.5220214 63.643197,67.3464127 63.87964,67.0441176 C64.1159326,66.7417726 64.2341792,66.5738641 64.5718189,66.5738641 Z M93.1732536,63.2836362 C93.325199,63.3844012 93.325199,63.6880432 93.0044087,64.4927668 C92.6836686,65.2975402 91.7213479,67.9355888 91.6537999,69.5464826 C91.5863021,71.1572766 91.6875488,70.8717922 91.788946,70.8046488 C91.8901928,70.7374056 93.7309383,67.5762268 96.2952045,67.3800343 C97.1731278,67.3128409 97.6289138,68.1357222 97.4770186,68.7403124 C97.3250732,69.3449026 96.7509905,70.6535012 94.8263992,72.1314051 C93.2636185,73.3314069 92.0759373,72.987858 92.0252386,72.4001285 C91.97454,71.8122992 92.4135769,71.4259999 92.6498695,71.4763825 C92.8862624,71.526765 92.6836686,71.7451059 92.5824218,71.9298251 C92.4810246,72.1145943 92.2616315,72.4168395 92.8019152,72.4168395 C93.3420985,72.4168395 95.0290432,71.6275799 96.7342414,69.0426574 C97.1111963,68.4710902 96.9199357,67.8670487 96.3965516,67.8670487 C95.8731675,67.8670487 94.6694392,68.4123272 93.7304368,69.395335 C92.4641251,70.7206946 92.0759373,71.7115341 91.7213479,71.7115341 C91.3668087,71.7115341 90.9279223,71.7100875 91.0798175,69.6794226 C91.2317629,67.6486579 92.1434852,64.2240434 92.5824218,63.5019771 C92.8176112,63.1149296 93.0213083,63.1828213 93.1732536,63.2836362 Z M47.0166623,66.053278 C47.6075443,66.1539931 47.6244438,67.6165328 46.729621,68.773934 C45.8348483,69.9313352 44.9414797,69.8487278 44.4518946,69.4960502 C44.4518946,69.4960502 44.0804559,70.0488611 44.0129079,71.0565115 C43.9453599,72.0641619 44.8387786,72.0305902 45.4465601,71.8122992 C46.0542915,71.5939583 47.219206,70.6366904 47.7763892,69.6122293 C47.872872,69.4348429 47.9452341,69.2273767 48.1646773,69.3280918 C48.3841205,69.4289067 48.2997231,69.6962334 47.8945355,70.3343953 C47.4893478,70.9725573 46.2555313,72.4672719 44.78808,72.4672719 C43.320729,72.4672719 43.4051264,71.0565115 43.4051264,70.5191146 C43.4051264,69.9816678 44.1986523,68.0517679 45.5985055,66.6914399 C46.0340822,66.268127 46.4257302,65.9525129 47.0166623,66.053278 Z M46.8140183,66.5738641 C47.1517082,66.5738641 46.9997628,67.4303669 46.560776,68.035007 C46.1218896,68.6395972 45.6645992,69.2105659 45.0582219,69.2441376 C44.4518946,69.2777592 44.6361347,68.992225 44.7712306,68.7571232 C44.9062765,68.5220214 45.8854967,67.3464127 46.1218896,67.0441176 C46.3582324,66.7417726 46.4763787,66.5738641 46.8140183,66.5738641 Z M18.0398774,66.053278 C18.6307593,66.1539931 18.6476589,67.6165328 17.752836,68.773934 C16.8580633,69.9313352 15.9646446,69.8487278 15.4751097,69.4960502 C15.4751097,69.4960502 15.1036709,70.0488611 15.0361229,71.0565115 C14.968575,72.0641619 15.8619937,72.0305902 16.4697752,71.8122992 C17.0775065,71.5939583 18.242421,70.6366904 18.7996042,69.6122293 C18.896087,69.4348429 18.9684491,69.2273767 19.1878924,69.3280918 C19.4073356,69.4289067 19.3229382,69.6962334 18.9177505,70.3343953 C18.5125629,70.9725573 17.2787464,72.4672719 15.8112951,72.4672719 C14.3439441,72.4672719 14.4283415,71.0565115 14.4283415,70.5191146 C14.4283415,69.9816678 15.2218172,68.0517679 16.6217206,66.6914399 C17.0572471,66.268127 17.4489954,65.9525129 18.0398774,66.053278 Z M17.8372334,66.5738641 C18.1749232,66.5738641 18.0229778,67.4303669 17.5839911,68.035007 C17.1450545,68.6395972 16.6878143,69.2105659 16.0814369,69.2441376 C15.4751097,69.2777592 15.6593497,68.992225 15.7944457,68.7571232 C15.9294915,68.5220214 16.9087118,67.3464127 17.1450545,67.0441176 C17.3814474,66.7417726 17.4995937,66.5738641 17.8372334,66.5738641 Z M9.75318794,63.2836362 C9.90513331,63.3844012 9.90513331,63.6880432 9.58439318,64.4927668 C9.2636029,65.2975402 8.30123205,67.9355888 8.23373421,69.5464826 C8.16618622,71.1572766 8.26753328,70.8717922 8.36878005,70.8046488 C8.47007696,70.7374056 10.3108726,67.5762268 12.8750887,67.3800343 C13.753012,67.3128409 14.2088982,68.1357222 14.0569027,68.7403124 C13.9049573,69.3449026 13.3309248,70.6535012 11.4062834,72.1314051 C9.84350266,73.3314069 8.6558214,72.987858 8.60517295,72.4001285 C8.55447434,71.8122992 8.99346107,71.4259999 9.22980383,71.4763825 C9.46624687,71.526765 9.26355275,71.7451059 9.16230598,71.9298251 C9.06100907,72.1145943 8.8415157,72.4168395 9.3817492,72.4168395 C9.92203284,72.4168395 11.6089274,71.6275799 13.3140754,69.0426574 C13.6910804,68.4710902 13.4997697,67.8670487 12.9763856,67.8670487 C12.4530015,67.8670487 11.2494236,68.4123272 10.310321,69.395335 C9.04410953,70.7206946 8.6558214,71.7115341 8.30123205,71.7115341 C7.946743,71.7115341 7.50780641,71.7100875 7.65970164,69.6794226 C7.81164701,67.6486579 8.72331925,64.2240434 9.16230598,63.5019771 C9.39749535,63.1149296 9.60124256,63.1828213 9.75318794,63.2836362 Z" id="Fill-23" fill="#414241"></path>
            <path d="M106.038112,42.0479532 C106.038112,45.1663318 106.522332,47.8259302 107.490971,50.0269479 C108.504943,52.1827211 109.818593,53.9481545 111.431872,55.324146 C113.045101,56.6539452 114.842971,57.5932549 116.825582,58.1432724 C118.853526,58.69324 120.859255,58.9682487 122.841866,58.9682487 C124.869811,58.9682487 126.874436,58.69324 128.857048,58.1432724 C130.839709,57.5932549 132.637579,56.6539452 134.250808,55.324146 C135.864036,53.9481545 137.154569,52.1827211 138.123108,50.0269479 C139.13708,47.8259302 139.644567,45.1663318 139.644567,42.0479532 C139.644567,38.9296744 139.13708,36.293222 138.123108,34.1373491 C137.154569,31.9364311 135.864036,30.1709977 134.250808,28.8411487 C132.637579,27.4651572 130.839709,26.4796551 128.857048,25.8834454 C126.874436,25.2411431 124.869811,24.9210395 122.841866,24.9210395 C120.859255,24.9210395 118.853526,25.2411431 116.825582,25.8834454 C114.842971,26.4796551 113.045101,27.4651572 111.431872,28.8411487 C109.818593,30.1709977 108.504943,31.9364311 107.490971,34.1373491 C106.522332,36.293222 106.038112,38.9296744 106.038112,42.0479532 Z M112.122948,42.0479532 C112.122948,40.122044 112.284321,38.2653734 112.607167,36.4768439 C112.97655,34.6883642 113.575806,33.1056547 114.405187,31.7306609 C115.235471,30.308527 116.341262,29.1854458 117.724567,28.3594219 C119.107771,27.5344456 120.812869,27.1219574 122.841866,27.1219574 C124.869811,27.1219574 126.574858,27.5344456 127.958063,28.3594219 C129.341418,29.1854458 130.447159,30.308527 131.277492,31.7306609 C132.106823,33.1056547 132.682962,34.6883642 133.005808,36.4768439 C133.375091,38.2653734 133.559682,40.122044 133.559682,42.0479532 C133.559682,43.9739622 133.375091,45.8317303 133.005808,47.6191624 C132.682962,49.407642 132.106823,51.0134975 131.277492,52.4346337 C130.447159,53.8105753 129.341418,54.9105604 127.958063,55.7365843 C126.574858,56.5615606 124.869811,56.9740488 122.841866,56.9740488 C120.812869,56.9740488 119.107771,56.5615606 117.724567,55.7365843 C116.341262,54.9105604 115.235471,53.8105753 114.405187,52.4346337 C113.575806,51.0134975 112.97655,49.407642 112.607167,47.6191624 C112.284321,45.8317303 112.122948,43.9739622 112.122948,42.0479532 Z M87.6076401,38.7603692 L87.6076401,42.9807781 C87.6076401,45.6557905 87.5375847,48.2610656 87.3985271,50.7977506 C87.3062065,53.3344855 87.2138859,55.8025305 87.1204621,58.1998904 C88.0479808,58.107007 88.9987676,58.0616128 89.9719702,58.0616128 C90.9918095,58.0616128 91.9659649,58.107007 92.8934836,58.1998904 L92.754426,56.1941673 L92.754426,53.980529 L92.754426,49.4835151 C92.754426,47.1315993 92.8001099,44.9178612 92.8934836,42.8425005 C92.9858042,40.7206981 93.0324409,38.6685333 93.0324409,36.6850085 C93.0324409,34.2865511 92.6843707,32.3262721 91.9893836,30.8039718 C91.3398798,29.2364269 90.4823663,28.0139774 89.4158903,27.1377706 C88.3494143,26.215122 87.1438807,25.5691283 85.7992394,25.2006375 C84.5014855,24.831199 83.2024779,24.6475772 81.9046237,24.6475772 C79.4013363,24.6475772 77.2448653,25.2006375 75.436565,26.3069578 C73.6283147,27.3679339 72.075764,28.8901843 70.7768066,30.8737092 L70.6378493,30.8737092 C70.6378493,29.028412 70.7078545,27.1842622 70.8468118,25.3390149 C70.2440951,25.4308507 69.7103306,25.5236843 69.2465712,25.61557 C68.8295489,25.6620117 68.4358449,25.6852575 68.064356,25.6852575 C67.2768979,25.6852575 66.2337904,25.5691283 64.9348329,25.3390149 C65.1672141,27.3225397 65.3062717,29.4665404 65.3519556,31.7731119 C65.445229,34.0331919 65.4920161,36.2003885 65.4920161,38.275849 L65.4920161,45.4710214 C65.4920161,47.546432 65.445229,49.7368244 65.3519556,52.043396 C65.3062717,54.3035758 65.1672141,56.3556907 64.9348329,58.1998904 C66.0014594,58.107007 67.0445167,58.0616128 68.064356,58.0616128 C69.0851982,58.0616128 70.128406,58.107007 71.1939292,58.1998904 C70.9625009,56.3556907 70.8001751,54.3035758 70.7078545,52.043396 C70.6611175,49.7368244 70.6378493,47.546432 70.6378493,45.4710214 L70.6378493,39.5900844 C70.6378493,35.9935707 71.3796235,33.2023792 72.8631218,31.2199518 C74.3934575,29.2364269 76.781106,28.2440909 80.0274214,28.2440909 C82.3917516,28.2440909 84.2457359,29.1434936 85.5902267,30.9422992 C86.9347678,32.6957106 87.6076401,35.3010356 87.6076401,38.7603692 Z M53.4112056,16.9970665 C53.4112056,14.8557596 55.1561703,13.120007 57.3087298,13.120007 C59.4613895,13.120007 61.2064044,14.8557596 61.2064044,16.9970665 C61.2064044,19.1383734 59.4613895,20.874126 57.3087298,20.874126 C55.1561703,20.874126 53.4112056,19.1383734 53.4112056,16.9970665 Z M2.27717471,38.0659384 C2.27717471,37.2672009 2.27050516,36.4549948 2.25696548,35.62937 C2.21865318,31.622563 0,29.5559319 0,29.5559319 L3.10038766,24.4051425 C3.10038766,24.4051425 5.95821435,25.9936883 7.47546161,30.5510615 L7.6187817,30.5858304 C10.1023614,26.3913111 13.5929929,24.2941014 18.0906261,24.2941014 C19.2616586,24.2941014 20.410175,24.4796687 21.5340693,24.8529982 C22.6590167,25.1794869 23.6659682,25.6456499 24.5560271,26.2515371 C25.4933244,26.8574243 26.2900598,27.6031354 26.9453305,28.4885209 C27.6016543,29.3270157 28.0467088,30.2358964 28.281497,31.2152128 L28.4220088,31.2152128 C29.5459031,28.9781791 31.0686665,27.2766966 32.9903994,26.1118129 C34.9581672,24.8999886 37.2070089,24.2941014 39.736774,24.2941014 C41.2831566,24.2941014 42.7115434,24.503114 44.024191,24.9223864 C45.3356851,25.3426564 46.4606325,25.9944865 47.3968768,26.8798719 C48.3813123,27.7663548 49.1309095,28.9077932 49.6466712,30.3063322 C50.2086184,31.7037237 50.4895919,33.3817609 50.4895919,35.3392465 C50.4895919,36.1318483 50.4660229,36.9937884 50.4188345,37.9261145 C50.3727495,38.8584904 50.3255612,39.9540358 50.2783728,41.2118029 C50.2321875,42.4236272 50.1850493,43.8221163 50.137861,45.4062225 C50.0917759,46.9445354 50.0681567,48.7388016 50.0681567,50.7901683 L50.0681567,54.425691 C50.1142919,55.5906246 50.1850493,56.8493396 50.2783728,58.1998904 C49.763614,58.1060093 49.2477519,58.0601163 48.7330433,58.0601163 L47.2563649,58.0601163 L45.7110353,58.0601163 C45.1952234,58.0601163 44.6794115,58.1060093 44.1646527,58.1998904 C44.3051645,57.0350066 44.4456263,54.6817439 44.5861381,51.1390049 C44.773738,47.5973632 44.8671117,42.6572325 44.8671117,36.318513 C44.8671117,35.1536293 44.7265497,34.0580839 44.4456263,33.0329243 C44.2107879,32.0066673 43.8129217,31.1212819 43.2509746,30.3756705 C42.6890274,29.6299593 41.9383772,29.0475174 41.002183,28.628295 C40.0649358,28.162132 38.8938532,27.9284768 37.4879824,27.9284768 C35.8010879,27.9284768 34.371648,28.2549655 33.2005654,28.9077932 C32.0294828,29.560621 31.1158549,30.3297775 30.4595311,31.2152128 C30.085234,31.7271691 29.7806913,32.2403225 29.5459031,32.7523785 C29.359256,33.2654821 29.1951751,34.0580839 29.0547134,35.1301341 C28.9603869,36.1553435 28.8906324,37.6231709 28.8434441,39.5337658 C28.7962558,41.3984178 28.7726867,43.9853357 28.7726867,47.2944196 C28.7726867,49.2988457 28.7962558,51.1390049 28.8434441,52.8169921 C28.9367677,54.4480888 29.0311443,56.2434524 29.1244177,58.1998904 C28.0467088,58.1060093 27.0160879,58.0601163 26.0316022,58.0601163 C25.0482699,58.0601163 24.0177493,58.1060093 22.9399903,58.1998904 C23.1737755,55.6375153 23.3378063,53.0271521 23.4322331,50.3708959 C23.5255065,47.7136421 23.5726447,45.1032789 23.5726447,42.5409537 C23.5726447,40.3498628 23.5490756,38.6483803 23.5018873,37.436556 C23.5018873,36.1787889 23.4547491,35.1995223 23.3613754,34.5008016 C23.268102,33.7551403 23.1275902,33.1492531 22.9399903,32.6830402 C22.7994784,32.2168772 22.588159,31.7037237 22.3072857,31.1447272 C21.7914237,30.2593417 20.9721222,29.5137303 19.8471748,28.9077932 C18.7694157,28.2549655 17.6455716,27.9284768 16.4745391,27.9284768 C13.3817738,27.9284768 11.1093631,28.9312386 9.65735704,30.9357146 C8.20429793,32.9390931 7.47826984,35.7595165 7.47826984,39.3939917 L7.47826984,45.336934 C7.47826984,47.4341438 7.50183892,49.6476823 7.54902724,51.9785472 C7.64235078,54.2624716 7.80638158,56.336236 8.04016684,58.1998904 C6.96240778,58.1060093 5.90831809,58.0601163 4.8776972,58.0601163 C3.8471766,58.0601163 2.79298663,58.1060093 1.71522757,58.1998904 C1.94901283,56.336236 2.09057777,54.2624716 2.136713,51.9785472 C2.23108963,49.6476823 2.27717471,47.4341438 2.27717471,45.336934 L2.27717471,38.0659384 Z M55.1922762,38.2899162 L55.1922762,45.4800503 C55.1922762,47.5539145 55.1456395,49.7428105 55.0533189,52.0477858 C55.0066822,54.3062695 54.8677249,56.3570375 54.6365974,58.1998904 C55.7023212,58.1071067 56.7448269,58.0617126 57.763914,58.0617126 C58.7830011,58.0617126 59.8254065,58.1071067 60.8911303,58.1998904 C60.6600028,56.3570375 60.4977773,54.3062695 60.4044538,52.0477858 C60.35882,49.7428105 60.3355518,47.5539145 60.3355518,45.4800503 L60.3355518,38.2899162 C60.3355518,36.2160021 60.35882,34.0502521 60.4044538,31.7917186 C60.4977773,29.4867931 60.6600028,27.3443389 60.8911303,25.3622108 C59.5942289,25.5921247 58.5517733,25.708204 57.763914,25.708204 C56.9759544,25.708204 55.9334988,25.5921247 54.6365974,25.3622108 C54.8677249,27.3443389 55.0066822,29.4867931 55.0533189,31.7917186 C55.1456395,34.0502521 55.1922762,36.2160021 55.1922762,38.2899162 Z M98.3712397,25.6221547 L98.3712397,38.2760485 C98.3712397,39.8602046 98.3476204,41.5851324 98.3015855,43.4487369 C98.3015855,45.3134388 98.2779161,47.1546455 98.2307779,48.9724568 C98.1835395,50.7901683 98.1138853,52.5140485 98.0195087,54.1451452 C97.9733233,55.7772894 97.9025659,57.1288378 97.8092925,58.1998904 C98.8870014,58.1060093 99.9412415,58.0601163 100.971762,58.0601163 C102.002333,58.0601163 103.056473,58.1060093 104.134232,58.1998904 C104.040908,57.1288378 103.946532,55.7772894 103.853258,54.1451452 C103.80612,52.5140485 103.759935,50.7901683 103.712796,48.9724568 L103.572285,43.4487369 L103.572285,38.2760485 L103.572285,25.6221547 L103.572285,20.4484187 L103.712796,14.9257963 C103.759935,13.1080848 103.80612,11.383107 103.853258,9.75206029 C103.946532,8.07402312 104.040908,6.65308643 104.134232,5.48715514 C102.822738,5.72076042 101.768497,5.83703928 100.971762,5.83703928 C100.174977,5.83703928 99.1208368,5.72076042 97.8092925,5.48715514 C97.9025659,6.65308643 97.9733233,8.07402312 98.0195087,9.75206029 C98.1138853,11.383107 98.1835395,13.1080848 98.2307779,14.9257963 C98.2779161,16.7435576 98.3015855,18.5848142 98.3015855,20.4484187 C98.3476204,22.3131206 98.3712397,24.0370009 98.3712397,25.6221547 Z" id="Fill-24" fill="#414241"></path>
            <g id="Group" transform="translate(142.277535, 0.000000)">
                <path d="M8.52498791,48.8361247 C9.17689875,48.4869389 10.0795445,46.7908937 9.37748671,44.1969422 C8.47484093,40.7050845 3.96161203,38.6598535 2.65779035,38.1610167 C2.60764336,39.5078761 2.50734939,44.4962443 3.61058312,46.1424058 C4.96455179,48.1876368 7.87307707,49.1853104 8.52498791,48.8361247 Z M1.35396867,41.5531071 C1.35396867,40.8547356 1.35396867,40.1064803 1.35396867,39.4081088 C1.15338072,36.6146226 0,35.2677632 0,35.2677632 C0,35.2677632 2.60764336,36.5647389 4.26249396,37.3628778 L4.46308191,37.4626452 C5.21528672,37.811831 6.21822648,38.3106678 7.27131322,38.9591556 C9.32733972,40.2561314 11.7845421,42.351246 12.5367469,45.2943832 C13.3892457,48.5368226 12.4865999,51.5298435 10.6813084,52.4776335 C8.62528189,53.5251908 4.36278793,51.2804251 2.75808433,48.786241 C1.75514457,47.2897305 1.50440963,44.546128 1.40411566,42.4510134 C1.35396867,42.3013623 1.35396867,42.0020602 1.35396867,41.5531071 Z" id="Shape" fill="url(#linearGradient-1)"></path>
                <path d="M9.32733972,30.0299766 C8.42469394,26.5381188 3.91146504,24.5427715 2.60764336,23.994051 C2.55749637,25.3409105 2.4572024,30.3292787 3.56043613,31.9754402 C4.9144048,33.9707874 7.7727831,34.9684611 8.42469394,34.6192753 C9.12675177,34.3199732 9.97925056,32.623928 9.32733972,30.0299766 Z M1.35396867,27.4360251 C1.35396867,26.7376535 1.35396867,25.9893983 1.35396867,25.2910268 C1.15338072,22.4975406 0,21.1506812 0,21.1506812 C0,21.1506812 2.60764336,22.4476569 4.26249396,23.2457958 L4.46308191,23.3455632 C5.21528672,23.6947489 6.21822648,24.1935858 7.27131322,24.8420736 C9.32733972,26.1390494 11.7845421,28.234164 12.5367469,31.1773012 C13.3892457,34.4197406 12.4865999,37.4127615 10.6813084,38.3605515 C8.62528189,39.4081088 4.36278793,37.1633431 2.75808433,34.669159 C1.75514457,33.1726485 1.50440963,30.429046 1.40411566,28.3339314 C1.35396867,28.1842803 1.35396867,27.9348619 1.35396867,27.4360251 Z" id="Shape" fill="url(#linearGradient-2)"></path>
                <path d="M9.32733972,15.9128946 C8.42469394,12.4210368 3.91146504,10.4256895 2.60764336,9.87696903 C2.55749637,11.2238284 2.4572024,16.2121966 3.56043613,17.8583582 C4.9144048,19.8537054 7.7727831,20.8513791 8.42469394,20.5021933 C9.12675177,20.2028912 9.97925056,18.506846 9.32733972,15.9128946 Z M1.35396867,13.3688268 C1.35396867,12.6704552 1.35396867,11.9222 1.35396867,11.2238284 C1.15338072,8.43034226 0,7.08348284 0,7.08348284 C0,7.08348284 2.60764336,8.38045857 4.26249396,9.17859749 L4.46308191,9.27836485 C5.21528672,9.62755062 6.21822648,10.1263874 7.27131322,10.7748753 C9.32733972,12.071851 11.7845421,14.1669657 12.5367469,17.1101029 C13.3892457,20.3525423 12.4865999,23.3455632 10.6813084,24.2933531 C8.62528189,25.3409105 4.36278793,23.0961448 2.75808433,20.6019607 C1.75514457,19.1054502 1.50440963,16.3618477 1.40411566,14.266733 C1.35396867,14.0671983 1.35396867,13.8177799 1.35396867,13.3688268 Z" id="Shape" fill="url(#linearGradient-3)"></path>
                <path d="M21.0115879,53.2258887 C22.1148216,51.5797272 22.0145276,46.591359 21.9643806,45.2444996 C20.7107059,45.7433364 16.14733,47.7386837 15.2446843,51.2804251 C14.5927734,53.8743766 15.4452722,55.5704217 16.0971831,55.9196075 C16.7992409,56.2189096 19.7077662,55.221236 21.0115879,53.2258887 Z M23.3183493,49.4347289 C23.2180553,51.5298435 22.9673204,54.273446 21.9643806,55.7699565 C20.30953,58.2142569 16.0470361,60.4590226 14.0411566,59.4613489 C12.235865,58.5634427 11.3332192,55.5704217 12.185718,52.2780987 C12.9379228,49.3349615 15.3951252,47.2398468 17.4511517,45.9428711 C18.5042385,45.2943832 19.5071782,44.7955464 20.259383,44.4463607 L20.459971,44.3465933 C22.1148216,43.5484544 24.7224649,42.2514786 24.7224649,42.2514786 C24.7224649,42.2514786 23.5690842,43.5983381 23.3684963,46.3918243 C23.3684963,47.0901958 23.4186433,47.838451 23.3684963,48.5368226 C23.3684963,49.0356594 23.3183493,49.3349615 23.3183493,49.4347289 Z" id="Shape" fill="url(#linearGradient-4)"></path>
                <path d="M21.0115879,39.208574 C22.1148216,37.5624125 22.0145276,32.5740443 21.9643806,31.2271849 C20.7107059,31.7260217 16.14733,33.721369 15.2446843,37.2631104 C14.5927734,39.8570619 15.4452722,41.5531071 16.0971831,41.9022929 C16.7992409,42.201595 19.7077662,41.1540376 21.0115879,39.208574 Z M23.3183493,35.4174142 C23.2180553,37.5125289 22.9673204,40.2561314 21.9643806,41.7526418 C20.30953,44.1969422 16.0470361,46.4417079 14.0411566,45.4440343 C12.235865,44.546128 11.3332192,41.5531071 12.185718,38.2607841 C12.9379228,35.3176469 15.3951252,33.2225322 17.4511517,31.9255565 C18.5042385,31.2770686 19.5071782,30.7782318 20.259383,30.429046 L20.459971,30.3292787 C22.1148216,29.5311397 24.7224649,28.234164 24.7224649,28.234164 C24.7224649,28.234164 23.5690842,29.5810234 23.3684963,32.3745096 C23.3684963,33.0728812 23.4186433,33.8211364 23.3684963,34.5195079 C23.3684963,35.0183448 23.3183493,35.2677632 23.3183493,35.4174142 Z" id="Shape" fill="url(#linearGradient-5)"></path>
                <path d="M20.9112939,10.97441 C22.0145276,9.32824853 21.9142336,4.33988033 21.8640866,2.99302092 C20.610412,3.49185774 16.0470361,5.48720502 15.1443903,9.02894644 C14.4924795,11.6228979 15.3449782,13.3189431 15.9968891,13.6681289 C16.6989469,13.967431 19.6074722,12.9697573 20.9112939,10.97441 Z M23.1679083,7.18325021 C23.0676144,9.27836485 22.8168794,12.0219674 21.8139397,13.5184778 C20.1590891,15.9627782 15.8965951,18.2075439 13.8907156,17.2098703 C12.085424,16.311964 11.1827783,13.3189431 12.0352771,10.0266201 C12.7874819,7.08348284 15.2446843,4.9883682 17.3007108,3.69139247 C18.3537975,3.0429046 19.3567373,2.54406778 20.1089421,2.19488201 L20.30953,2.09511464 C21.9643806,1.29697573 24.572024,0 24.572024,0 C24.572024,0 23.4186433,1.34685941 23.2180553,4.14034561 C23.2180553,4.83871715 23.2682023,5.58697238 23.2180553,6.28534393 C23.2180553,6.78418075 23.2180553,7.03359916 23.1679083,7.18325021 Z" id="Shape" fill="url(#linearGradient-6)"></path>
                <path d="M20.9112939,24.9917247 C22.0145276,23.3455632 21.9142336,18.357195 21.8640866,17.0103356 C20.610412,17.5091724 16.0470361,19.5045197 15.1443903,23.0462611 C14.4924795,25.6402125 15.3449782,27.3362577 15.9968891,27.6854435 C16.6989469,27.9847456 19.6074722,26.987072 20.9112939,24.9917247 Z M23.1679083,21.2504485 C23.0676144,23.3455632 22.8168794,26.0891657 21.8139397,27.5856761 C20.1590891,30.0299766 15.8965951,32.2747422 13.8907156,31.2770686 C12.085424,30.3791623 11.1827783,27.3861414 12.0352771,24.0938184 C12.7874819,21.1506812 15.2446843,19.0555665 17.3007108,17.7585908 C18.3537975,17.1101029 19.3567373,16.6112661 20.1089421,16.2620803 L20.30953,16.162313 C21.9643806,15.3641741 24.572024,14.0671983 24.572024,14.0671983 C24.572024,14.0671983 23.4186433,15.4140577 23.2180553,18.2075439 C23.2180553,18.9059155 23.2682023,19.6541707 23.2180553,20.3525423 C23.2180553,20.8513791 23.2180553,21.1007975 23.1679083,21.2504485 Z" id="Shape" fill="url(#linearGradient-7)"></path>
            </g>
            <path d="M146.0178,59.1698 L146.5234,59.1698 C147.1138,59.1698 147.3945,59.3944 147.4785,59.8721 C147.6191,60.4346 147.7036,60.828 147.8437,60.9961 L148.968,60.9961 C148.8835,60.828 148.7712,60.5752 148.6306,59.8721 C148.4902,59.2538 148.2656,58.8887 147.8159,58.7479 L147.8159,58.6924 C148.3499,58.5233 148.7712,58.1581 148.7712,57.5967 C148.7712,57.1474 148.5742,56.8104 148.2935,56.6133 C147.9844,56.3887 147.5913,56.2479 146.7202,56.2479 C145.9617,56.2479 145.3713,56.3319 144.9499,56.3887 L144.9499,60.9961 L146.0178,60.9961 L146.0178,59.1698 Z M146.0457,57.0907 C146.158,57.0625 146.3547,57.0351 146.6357,57.0351 C147.3101,57.0351 147.6191,57.3153 147.6191,57.7372 C147.6191,58.2147 147.1416,58.411 146.5515,58.411 L146.0457,58.411 L146.0457,57.0907 Z M146.7764,54 C144.1069,54 142,56.0233 142,58.6084 C142,61.1933 144.1069,63.244 146.7485,63.244 C149.3894,63.244 151.4687,61.1933 151.4687,58.6084 C151.4687,56.0233 149.3894,54 146.7764,54 Z M146.7202,54.9276 C148.7712,54.9276 150.2883,56.5849 150.2883,58.6356 C150.2883,60.6592 148.7712,62.3174 146.7764,62.289 C144.7253,62.289 143.1797,60.6592 143.1797,58.6084 C143.1797,56.5849 144.7253,54.9276 146.7202,54.9276 Z" id="Fill-22" fill="#414241"></path>
        </g>
    </g>
</svg>